{
  "local": {
    "EnvironmentConfig": {
      "API_URL": "http://localhost:4000/api"
    }
  },
  "production": {
    "EnvironmentConfig": {
      "API_URL": "https://bhopal.herokuapp.com/v1"
    }
  }
}
